\relax 
\catcode `"\active 
\catcode `<\active 
\catcode `>\active 
\@nameuse{es@quoting}
\babel@aux{spanish}{}
\@writefile{toc}{\contentsline {chapter}{\numberline {1}ROL DE LOS ALGORITMOS EN COMPUTACI\IeC {\'O}N}{3}\protected@file@percent }
\@writefile{lof}{\addvspace {10\p@ }}
\@writefile{lot}{\addvspace {10\p@ }}
\@writefile{toc}{\contentsline {section}{\numberline {1.1}Algoritmos}{3}\protected@file@percent }
\@writefile{toc}{\contentsline {section}{\numberline {1.2}Algoritmos como tecnolog\IeC {\'\i }a}{4}\protected@file@percent }
\@writefile{toc}{\contentsline {chapter}{\numberline {2}EMPEZANDO}{7}\protected@file@percent }
\@writefile{lof}{\addvspace {10\p@ }}
\@writefile{lot}{\addvspace {10\p@ }}
\@writefile{toc}{\contentsline {section}{\numberline {2.1}Ordenamiento por inserci\IeC {\'o}n}{7}\protected@file@percent }
\@writefile{toc}{\contentsline {section}{\numberline {2.2}Analizando algoritmos}{8}\protected@file@percent }
\@writefile{toc}{\contentsline {section}{\numberline {2.3}Dise\IeC {\~n}ando algoritmos}{9}\protected@file@percent }
\@writefile{toc}{\contentsline {chapter}{\numberline {3}CRECIMIENTO DE FUNCIONES}{11}\protected@file@percent }
\@writefile{lof}{\addvspace {10\p@ }}
\@writefile{lot}{\addvspace {10\p@ }}
\@writefile{toc}{\contentsline {section}{\numberline {3.1}Notaci\IeC {\'o}n asint\IeC {\'o}tica}{11}\protected@file@percent }
\@writefile{toc}{\contentsline {section}{\numberline {3.2}Notaciones est\IeC {\'a}ndares y funciones comunes}{11}\protected@file@percent }
\@writefile{toc}{\contentsline {section}{\numberline {3.3}Comparar funciones}{14}\protected@file@percent }
\@writefile{toc}{\contentsline {section}{\numberline {3.4}Notaciones est\IeC {\'a}ndar y funciones comunes}{15}\protected@file@percent }
\@writefile{toc}{\contentsline {chapter}{\numberline {4}DIVIDE Y VENCER\IeC {\'A}S}{17}\protected@file@percent }
\@writefile{lof}{\addvspace {10\p@ }}
\@writefile{lot}{\addvspace {10\p@ }}
\@writefile{toc}{\contentsline {section}{\numberline {4.1}El problema del subarreglo m\IeC {\'a}ximo}{17}\protected@file@percent }
\@writefile{toc}{\contentsline {section}{\numberline {4.2}Algoritmo de Strassen para la multiplicaci\IeC {\'o}n de matrices}{19}\protected@file@percent }
